^D:\UNREAL PROJECTS\SKILLBOX\PRACTICAL_9_7_2\GAME.CPP
/c /ZI /JMC /nologo /W3 /WX- /diagnostics:column /sdl /Od /D _DEBUG /D _CONSOLE /D _UNICODE /D UNICODE /Gm- /EHsc /RTC1 /MDd /GS /fp:precise /permissive- /Zc:wchar_t /Zc:forScope /Zc:inline /Fo"X64\DEBUG\\" /Fd"X64\DEBUG\VC142.PDB" /external:W3 /Gd /TP /FC D:\UNREAL PROJECTS\SKILLBOX\PRACTICAL_9_7_2\GAME.CPP
^D:\UNREAL PROJECTS\SKILLBOX\PRACTICAL_9_7_2\INPUT.CPP
/c /ZI /JMC /nologo /W3 /WX- /diagnostics:column /sdl /Od /D _DEBUG /D _CONSOLE /D _UNICODE /D UNICODE /Gm- /EHsc /RTC1 /MDd /GS /fp:precise /permissive- /Zc:wchar_t /Zc:forScope /Zc:inline /Fo"X64\DEBUG\\" /Fd"X64\DEBUG\VC142.PDB" /external:W3 /Gd /TP /FC D:\UNREAL PROJECTS\SKILLBOX\PRACTICAL_9_7_2\INPUT.CPP
^D:\UNREAL PROJECTS\SKILLBOX\PRACTICAL_9_7_2\PRACTICAL_9_7_2.CPP
/c /ZI /JMC /nologo /W3 /WX- /diagnostics:column /sdl /Od /D _DEBUG /D _CONSOLE /D _UNICODE /D UNICODE /Gm- /EHsc /RTC1 /MDd /GS /fp:precise /permissive- /Zc:wchar_t /Zc:forScope /Zc:inline /Fo"X64\DEBUG\\" /Fd"X64\DEBUG\VC142.PDB" /external:W3 /Gd /TP /FC D:\UNREAL PROJECTS\SKILLBOX\PRACTICAL_9_7_2\PRACTICAL_9_7_2.CPP
^D:\UNREAL PROJECTS\SKILLBOX\PRACTICAL_9_7_2\DGAME.CPP
/c /ZI /JMC /nologo /W3 /WX- /diagnostics:column /sdl /Od /D _DEBUG /D _CONSOLE /D _UNICODE /D UNICODE /Gm- /EHsc /RTC1 /MDd /GS /fp:precise /permissive- /Zc:wchar_t /Zc:forScope /Zc:inline /Fo"X64\DEBUG\\" /Fd"X64\DEBUG\VC142.PDB" /external:W3 /Gd /TP /FC D:\UNREAL PROJECTS\SKILLBOX\PRACTICAL_9_7_2\DGAME.CPP
^D:\UNREAL PROJECTS\SKILLBOX\PRACTICAL_9_7_2\DINPUT.CPP
/c /ZI /JMC /nologo /W3 /WX- /diagnostics:column /sdl /Od /D _DEBUG /D _CONSOLE /D _UNICODE /D UNICODE /Gm- /EHsc /RTC1 /MDd /GS /fp:precise /permissive- /Zc:wchar_t /Zc:forScope /Zc:inline /Fo"X64\DEBUG\\" /Fd"X64\DEBUG\VC142.PDB" /external:W3 /Gd /TP /FC D:\UNREAL PROJECTS\SKILLBOX\PRACTICAL_9_7_2\DINPUT.CPP
^D:\UNREAL PROJECTS\SKILLBOX\PRACTICAL_9_7_2\DRENDER.CPP
/c /ZI /JMC /nologo /W3 /WX- /diagnostics:column /sdl /Od /D _DEBUG /D _CONSOLE /D _UNICODE /D UNICODE /Gm- /EHsc /RTC1 /MDd /GS /fp:precise /permissive- /Zc:wchar_t /Zc:forScope /Zc:inline /Fo"X64\DEBUG\\" /Fd"X64\DEBUG\VC142.PDB" /external:W3 /Gd /TP /FC D:\UNREAL PROJECTS\SKILLBOX\PRACTICAL_9_7_2\DRENDER.CPP
