^D:\UNREAL PROJECTS\SKILLBOX\PRACTICAL_9_7_2\PRACTICAL_9_7_2.CPP|D:\UNREAL PROJECTS\SKILLBOX\PRACTICAL_9_7_2\RENDER.CPP
D:\UNREAL PROJECTS\SKILLBOX\PRACTICAL_9_7_2\X64\DEBUG\VC142.PDB
D:\UNREAL PROJECTS\SKILLBOX\PRACTICAL_9_7_2\X64\DEBUG\VC142.IDB
D:\UNREAL PROJECTS\SKILLBOX\PRACTICAL_9_7_2\X64\DEBUG\RENDER.OBJ
D:\UNREAL PROJECTS\SKILLBOX\PRACTICAL_9_7_2\X64\DEBUG\PRACTICAL_9_7_2.OBJ
^D:\UNREAL PROJECTS\SKILLBOX\PRACTICAL_9_7_2\GAME.CPP|D:\UNREAL PROJECTS\SKILLBOX\PRACTICAL_9_7_2\PRACTICAL_9_7_2.CPP
D:\UNREAL PROJECTS\SKILLBOX\PRACTICAL_9_7_2\X64\DEBUG\VC142.PDB
D:\UNREAL PROJECTS\SKILLBOX\PRACTICAL_9_7_2\X64\DEBUG\VC142.IDB
D:\UNREAL PROJECTS\SKILLBOX\PRACTICAL_9_7_2\X64\DEBUG\PRACTICAL_9_7_2.OBJ
D:\UNREAL PROJECTS\SKILLBOX\PRACTICAL_9_7_2\X64\DEBUG\GAME.OBJ
^D:\UNREAL PROJECTS\SKILLBOX\PRACTICAL_9_7_2\GAME.CPP|D:\UNREAL PROJECTS\SKILLBOX\PRACTICAL_9_7_2\PRACTICAL_9_7_2.CPP|D:\UNREAL PROJECTS\SKILLBOX\PRACTICAL_9_7_2\RENDER.CPP
D:\UNREAL PROJECTS\SKILLBOX\PRACTICAL_9_7_2\X64\DEBUG\VC142.PDB
D:\UNREAL PROJECTS\SKILLBOX\PRACTICAL_9_7_2\X64\DEBUG\VC142.IDB
D:\UNREAL PROJECTS\SKILLBOX\PRACTICAL_9_7_2\X64\DEBUG\RENDER.OBJ
D:\UNREAL PROJECTS\SKILLBOX\PRACTICAL_9_7_2\X64\DEBUG\PRACTICAL_9_7_2.OBJ
D:\UNREAL PROJECTS\SKILLBOX\PRACTICAL_9_7_2\X64\DEBUG\GAME.OBJ
^D:\UNREAL PROJECTS\SKILLBOX\PRACTICAL_9_7_2\GAME.CPP|D:\UNREAL PROJECTS\SKILLBOX\PRACTICAL_9_7_2\RENDER.CPP
D:\UNREAL PROJECTS\SKILLBOX\PRACTICAL_9_7_2\X64\DEBUG\VC142.PDB
D:\UNREAL PROJECTS\SKILLBOX\PRACTICAL_9_7_2\X64\DEBUG\VC142.IDB
D:\UNREAL PROJECTS\SKILLBOX\PRACTICAL_9_7_2\X64\DEBUG\RENDER.OBJ
D:\UNREAL PROJECTS\SKILLBOX\PRACTICAL_9_7_2\X64\DEBUG\GAME.OBJ
^D:\UNREAL PROJECTS\SKILLBOX\PRACTICAL_9_7_2\GAME.CPP
D:\UNREAL PROJECTS\SKILLBOX\PRACTICAL_9_7_2\X64\DEBUG\VC142.PDB
^D:\UNREAL PROJECTS\SKILLBOX\PRACTICAL_9_7_2\DGAME.CPP|D:\UNREAL PROJECTS\SKILLBOX\PRACTICAL_9_7_2\INPUT.CPP|D:\UNREAL PROJECTS\SKILLBOX\PRACTICAL_9_7_2\PRACTICAL_9_7_2.CPP|D:\UNREAL PROJECTS\SKILLBOX\PRACTICAL_9_7_2\RENDER.CPP
D:\UNREAL PROJECTS\SKILLBOX\PRACTICAL_9_7_2\X64\DEBUG\VC142.PDB
D:\UNREAL PROJECTS\SKILLBOX\PRACTICAL_9_7_2\X64\DEBUG\VC142.IDB
D:\UNREAL PROJECTS\SKILLBOX\PRACTICAL_9_7_2\X64\DEBUG\PRACTICAL_9_7_2.OBJ
D:\UNREAL PROJECTS\SKILLBOX\PRACTICAL_9_7_2\X64\DEBUG\INPUT.OBJ
^D:\UNREAL PROJECTS\SKILLBOX\PRACTICAL_9_7_2\INPUT.CPP
D:\UNREAL PROJECTS\SKILLBOX\PRACTICAL_9_7_2\X64\DEBUG\INPUT.OBJ
^D:\UNREAL PROJECTS\SKILLBOX\PRACTICAL_9_7_2\DRENDER.CPP|D:\UNREAL PROJECTS\SKILLBOX\PRACTICAL_9_7_2\PRACTICAL_9_7_2.CPP
D:\UNREAL PROJECTS\SKILLBOX\PRACTICAL_9_7_2\X64\DEBUG\VC142.PDB
D:\UNREAL PROJECTS\SKILLBOX\PRACTICAL_9_7_2\X64\DEBUG\VC142.IDB
D:\UNREAL PROJECTS\SKILLBOX\PRACTICAL_9_7_2\X64\DEBUG\PRACTICAL_9_7_2.OBJ
^D:\UNREAL PROJECTS\SKILLBOX\PRACTICAL_9_7_2\DGAME.CPP|D:\UNREAL PROJECTS\SKILLBOX\PRACTICAL_9_7_2\DRENDER.CPP|D:\UNREAL PROJECTS\SKILLBOX\PRACTICAL_9_7_2\PRACTICAL_9_7_2.CPP
D:\UNREAL PROJECTS\SKILLBOX\PRACTICAL_9_7_2\X64\DEBUG\VC142.PDB
D:\UNREAL PROJECTS\SKILLBOX\PRACTICAL_9_7_2\X64\DEBUG\VC142.IDB
D:\UNREAL PROJECTS\SKILLBOX\PRACTICAL_9_7_2\X64\DEBUG\PRACTICAL_9_7_2.OBJ
D:\UNREAL PROJECTS\SKILLBOX\PRACTICAL_9_7_2\X64\DEBUG\DRENDER.OBJ
D:\UNREAL PROJECTS\SKILLBOX\PRACTICAL_9_7_2\X64\DEBUG\DGAME.OBJ
^D:\UNREAL PROJECTS\SKILLBOX\PRACTICAL_9_7_2\DGAME.CPP|D:\UNREAL PROJECTS\SKILLBOX\PRACTICAL_9_7_2\DINPUT.CPP|D:\UNREAL PROJECTS\SKILLBOX\PRACTICAL_9_7_2\DRENDER.CPP|D:\UNREAL PROJECTS\SKILLBOX\PRACTICAL_9_7_2\PRACTICAL_9_7_2.CPP
D:\UNREAL PROJECTS\SKILLBOX\PRACTICAL_9_7_2\X64\DEBUG\VC142.PDB
D:\UNREAL PROJECTS\SKILLBOX\PRACTICAL_9_7_2\X64\DEBUG\VC142.IDB
D:\UNREAL PROJECTS\SKILLBOX\PRACTICAL_9_7_2\X64\DEBUG\PRACTICAL_9_7_2.OBJ
D:\UNREAL PROJECTS\SKILLBOX\PRACTICAL_9_7_2\X64\DEBUG\DRENDER.OBJ
D:\UNREAL PROJECTS\SKILLBOX\PRACTICAL_9_7_2\X64\DEBUG\DINPUT.OBJ
D:\UNREAL PROJECTS\SKILLBOX\PRACTICAL_9_7_2\X64\DEBUG\DGAME.OBJ
^D:\UNREAL PROJECTS\SKILLBOX\PRACTICAL_9_7_2\PRACTICAL_9_7_2.CPP
D:\UNREAL PROJECTS\SKILLBOX\PRACTICAL_9_7_2\X64\DEBUG\VC142.PDB
^D:\UNREAL PROJECTS\SKILLBOX\PRACTICAL_9_7_2\DGAME.CPP|D:\UNREAL PROJECTS\SKILLBOX\PRACTICAL_9_7_2\DRENDER.CPP
D:\UNREAL PROJECTS\SKILLBOX\PRACTICAL_9_7_2\X64\DEBUG\VC142.PDB
D:\UNREAL PROJECTS\SKILLBOX\PRACTICAL_9_7_2\X64\DEBUG\VC142.IDB
D:\UNREAL PROJECTS\SKILLBOX\PRACTICAL_9_7_2\X64\DEBUG\DRENDER.OBJ
D:\UNREAL PROJECTS\SKILLBOX\PRACTICAL_9_7_2\X64\DEBUG\DGAME.OBJ
^D:\UNREAL PROJECTS\SKILLBOX\PRACTICAL_9_7_2\DGAME.CPP|D:\UNREAL PROJECTS\SKILLBOX\PRACTICAL_9_7_2\DINPUT.CPP
D:\UNREAL PROJECTS\SKILLBOX\PRACTICAL_9_7_2\X64\DEBUG\VC142.PDB
D:\UNREAL PROJECTS\SKILLBOX\PRACTICAL_9_7_2\X64\DEBUG\VC142.IDB
D:\UNREAL PROJECTS\SKILLBOX\PRACTICAL_9_7_2\X64\DEBUG\DINPUT.OBJ
D:\UNREAL PROJECTS\SKILLBOX\PRACTICAL_9_7_2\X64\DEBUG\DGAME.OBJ
^D:\UNREAL PROJECTS\SKILLBOX\PRACTICAL_9_7_2\DGAME.CPP|D:\UNREAL PROJECTS\SKILLBOX\PRACTICAL_9_7_2\DINPUT.CPP|D:\UNREAL PROJECTS\SKILLBOX\PRACTICAL_9_7_2\DRENDER.CPP
D:\UNREAL PROJECTS\SKILLBOX\PRACTICAL_9_7_2\X64\DEBUG\VC142.PDB
D:\UNREAL PROJECTS\SKILLBOX\PRACTICAL_9_7_2\X64\DEBUG\VC142.IDB
D:\UNREAL PROJECTS\SKILLBOX\PRACTICAL_9_7_2\X64\DEBUG\DRENDER.OBJ
D:\UNREAL PROJECTS\SKILLBOX\PRACTICAL_9_7_2\X64\DEBUG\DINPUT.OBJ
D:\UNREAL PROJECTS\SKILLBOX\PRACTICAL_9_7_2\X64\DEBUG\DGAME.OBJ
^D:\UNREAL PROJECTS\SKILLBOX\PRACTICAL_9_7_2\DGAME.CPP
D:\UNREAL PROJECTS\SKILLBOX\PRACTICAL_9_7_2\X64\DEBUG\VC142.PDB
^D:\UNREAL PROJECTS\SKILLBOX\PRACTICAL_9_7_2\DINPUT.CPP
D:\UNREAL PROJECTS\SKILLBOX\PRACTICAL_9_7_2\X64\DEBUG\VC142.PDB
^D:\UNREAL PROJECTS\SKILLBOX\PRACTICAL_9_7_2\DRENDER.CPP
D:\UNREAL PROJECTS\SKILLBOX\PRACTICAL_9_7_2\X64\DEBUG\VC142.PDB
